{
  "SeeDocsAt": "https://github.com/Microsoft/AirSim/blob/master/docs/settings.md",
  "SettingsVersion": 1.2,
  "SimMode": "Car",
  "CameraDefaults": {
    "CaptureSettings": [
      {
        "ImageType": 0,
        "Width": 640,
        "Height": 480,
        "FOV_Degrees": 90
      },
      {
        "ImageType": 1,
        "Width": 640,
        "Height": 480,
        "FOV_Degrees": 90
      },
      {
        "ImageType": 2,
        "Width": 640,
        "Height": 480,
        "FOV_Degrees": 90
      },
      {
        "ImageType": 3,
        "Width": 640,
        "Height": 480,
        "FOV_Degrees": 90
      },
      {
        "ImageType": 5,
        "Width": 640,
        "Height": 480,
        "FOV_Degrees": 90
      }
    ]
  },
   "Vehicles": {
    "PhysXCar": {
      "VehicleType": "PhysXCar",
      "DefaultVehicleState": "",
      "AutoCreate": true,
      "PawnPath": "",
      "EnableCollisionPassthrogh": false,
      "EnableCollisions": true,
      "RC": {
        "RemoteControlID": -1
      },
      "Sensors": {
			    "LidarSensor1": { 
					"SensorType": 6,
					"Enabled" : true,
					"NumberOfChannels": 16,
					"RotationsPerSecond": 10,
					"PointsPerSecond": 100000,
					"X": 0, "Y": 0, "Z": -1,
					"Roll": 0, "Pitch": 0, "Yaw" : 0,
					"VerticalFOVUpper": -15,
					"VerticalFOVLower": -25,
					"HorizontalFOVStart": -20,
					"HorizontalFOVEnd": 20,
					"DrawDebugPoints": true,
					"DataFrame": "SensorLocalFrame"
				}    
    }
  }
}
}
